…
```
# A tibble: 300 × 16
   person_id timepoint rest_initial encoding maint retrieval  rest rest_final  strings targets response response_time
       <int>     <chr>        <int>    <dbl> <dbl>     <dbl> <int>      <int>    <chr>   <chr>    <int>         <dbl>
1         56         1           30        2     6         6     4         30 PCVMYRNS       R        0      5.993818
2         56         2           30        2     6         6     4         30  HFZQXRG       W        1      2.296271
3         56         3           30        2     6         6     4         30 HKMDXQJY       Q        1      2.177960
4         56         4           30        2     6         6     4         30  DWYSQPK       L        0      5.993956
5         56         5           30        2     6         6     4         30  NSHGXYJ       V       -2      0.000000
6         56         6           30        2     6         6     4         30 GDXBMJZL       B       -2      0.000000
7         56         7           30        2     6         6     4         30  FRCSNQP       H       -2      0.000000
8         56         8           30        2     6         6     4         30 HSYLNWXV       L       -2      0.000000
9         56         9           30        2     6         6     4         30 MJYZPDVS       T       -2      0.000000
10        56        10           30        2     6         6     4         30 FXVKPYGJ       C       -2      0.000000
# ... with 290 more rows, and 4 more variables: correct <lgl>, compatible <int>, target_x <lgl>, target_x_value <chr>
```
…
